Stochastic Processes with R - 1 Compound Poisson Processes
…
1.1.2 Non-simulated data

We consider the airplane crash data from Kaggle. I imagine that airplane crashes are not a homogeneous Poisson process over the time frame of this data set (1908-present), because, well, that would just be too much to believe! Safety has improved (surely) but also the number of flights has increased, so it is not at all clear what to make of it. We’ll probably need to restrict down to a time interval where the rate of crashes is approximately constant.

library(tidyverse)
dd <- read.csv("data/airplane_crashes.csv") %>% 
  janitor::clean_names()
dd <- as_tibble(dd)
dd

# A tibble: 5,268 × 14
   index date      time  locat…¹ opera…² flight route type  regis…³ cn_in aboard
   <int> <chr>     <chr> <chr>   <chr>   <chr>  <chr> <chr> <chr>   <chr>  <dbl>
 1     0 09/17/19… "17:… Fort M… Milita… ""     "Dem… Wrig… ""      "1"        2
 2     1 07/12/19… "06:… Atlant… Milita… ""     "Tes… Diri… ""      ""         5
 3     2 08/06/19… ""    Victor… Private "-"    ""    Curt… ""      ""         1
 4     3 09/09/19… "18:… Over t… Milita… ""     ""    Zepp… ""      ""        20
 5     4 10/17/19… "10:… Near J… Milita… ""     ""    Zepp… ""      ""        30
 6     5 03/05/19… "01:… Tienen… Milita… ""     ""    Zepp… ""      ""        41
 7     6 09/03/19… "15:… Off Cu… Milita… ""     ""    Zepp… ""      ""        19
 8     7 07/28/19… ""    Near J… Milita… ""     ""    Schu… ""      ""        20
 9     8 09/24/19… "01:… Biller… Milita… ""     ""    Zepp… ""      ""        22
10     9 10/01/19… "23:… Potter… Milita… ""     ""    Zepp… ""      ""        19
# … with 5,258 more rows, 3 more variables: fatalities <dbl>, ground <dbl>,
#   summary <chr>, and abbreviated variable names ¹​location, ²​operator,
#   ³​registration
…
